regresion.utf8
…
---
background-image: url(img/rf-fondo.png)
background-size: cover

## Random forest

```r
rf_fit %>% 
                predict(new_data = p_test) %>% 
                mutate(verdadero = p_test$masa_corporal_g)
```

```
## # A tibble: 83 x 2
##    .pred verdadero
##    <dbl>     <int>
##  1 3781.      3450
##  2 3985.      4675
##  3 3853.      3450
##  4 3525.      3400
##  5 3389.      3250
##  6 4081.      4150
##  7 4028.      3900
##  8 3844.      3425
##  9 4108.      4150
## 10 3461.      3450
## # … with 73 more rows
```
…
